<?xml version="1.0" encoding="UTF-8" standalone="no"?>
<svg
   xmlns:dc="http://purl.org/dc/elements/1.1/"
   xmlns:cc="http://creativecommons.org/ns#"
   xmlns:rdf="http://www.w3.org/1999/02/22-rdf-syntax-ns#"
   xmlns:svg="http://www.w3.org/2000/svg"
   xmlns="http://www.w3.org/2000/svg"
   xmlns:sodipodi="http://sodipodi.sourceforge.net/DTD/sodipodi-0.dtd"
   xmlns:inkscape="http://www.inkscape.org/namespaces/inkscape"
   width="30.5mm"
   height="30.5mm"
   viewBox="0 0 30.5 30.5"
   version="1.1"
   id="svg8"
   inkscape:version="1.0.2 (e86c870879, 2021-01-15)"
   sodipodi:docname="penta_Z.svg">
  <defs
     id="defs2" />
  <sodipodi:namedview
     id="base"
     pagecolor="#ffffff"
     bordercolor="#666666"
     borderopacity="1.0"
     inkscape:pageopacity="0.0"
     inkscape:pageshadow="2"
     inkscape:zoom="0.98994949"
     inkscape:cx="96.026"
     inkscape:cy="161.57498"
     inkscape:document-units="mm"
     inkscape:current-layer="layer1"
     inkscape:document-rotation="0"
     showgrid="true"
     inkscape:window-width="1920"
     inkscape:window-height="999"
     inkscape:window-x="0"
     inkscape:window-y="26"
     inkscape:window-maximized="1"
     fit-margin-top="0"
     fit-margin-left="0"
     fit-margin-right="0"
     fit-margin-bottom="0">
    <inkscape:grid
       type="xygrid"
       id="grid833"
       units="mm"
       spacingx="10"
       spacingy="10"
       dotted="true"
       originx="-109.75"
       originy="-69.750001" />
  </sodipodi:namedview>
  <metadata
     id="metadata5">
    <rdf:RDF>
      <cc:Work
         rdf:about="">
        <dc:format>image/svg+xml</dc:format>
        <dc:type
           rdf:resource="http://purl.org/dc/dcmitype/StillImage" />
        <dc:title></dc:title>
      </cc:Work>
    </rdf:RDF>
  </metadata>
  <g
     inkscape:label="Layer 1"
     inkscape:groupmode="layer"
     id="layer1"
     transform="translate(-109.75,-69.75)">
    <g
       id="g2497"
       transform="translate(-60,-10)">
      <rect
         style="fill:#ddf72e;fill-opacity:1;stroke:#ffffff;stroke-width:0.5;stroke-miterlimit:4;stroke-dasharray:none;stroke-opacity:1"
         id="rect838-35-0-8-23-28-1-94"
         width="10"
         height="10"
         x="170"
         y="80" />
      <rect
         style="fill:#ddf72e;fill-opacity:1;stroke:#ffffff;stroke-width:0.5;stroke-miterlimit:4;stroke-dasharray:none;stroke-opacity:1"
         id="rect838-35-0-8-23-28-1-94-7"
         width="10"
         height="10"
         x="180"
         y="80" />
      <rect
         style="fill:#ddf72e;fill-opacity:1;stroke:#ffffff;stroke-width:0.5;stroke-miterlimit:4;stroke-dasharray:none;stroke-opacity:1"
         id="rect838-35-0-8-23-28-1-94-8"
         width="10"
         height="10"
         x="180"
         y="90" />
      <rect
         style="fill:#ddf72e;fill-opacity:1;stroke:#ffffff;stroke-width:0.5;stroke-miterlimit:4;stroke-dasharray:none;stroke-opacity:1"
         id="rect838-35-0-8-23-28-1-94-4"
         width="10"
         height="10"
         x="180"
         y="100" />
      <rect
         style="fill:#ddf72e;fill-opacity:1;stroke:#ffffff;stroke-width:0.5;stroke-miterlimit:4;stroke-dasharray:none;stroke-opacity:1"
         id="rect838-35-0-8-23-28-1-94-5"
         width="10"
         height="10"
         x="190"
         y="100" />
    </g>
    <g
       id="g7942"
       transform="translate(-60,-10)">
      <rect
         style="fill:#ddf72e;fill-opacity:1;stroke:#ffffff;stroke-width:0.5;stroke-miterlimit:4;stroke-dasharray:none;stroke-opacity:1"
         id="rect7932"
         width="10"
         height="10"
         x="170"
         y="80" />
      <rect
         style="fill:#ddf72e;fill-opacity:1;stroke:#ffffff;stroke-width:0.5;stroke-miterlimit:4;stroke-dasharray:none;stroke-opacity:1"
         id="rect7934"
         width="10"
         height="10"
         x="180"
         y="80" />
      <rect
         style="fill:#ddf72e;fill-opacity:1;stroke:#ffffff;stroke-width:0.5;stroke-miterlimit:4;stroke-dasharray:none;stroke-opacity:1"
         id="rect7936"
         width="10"
         height="10"
         x="180"
         y="90" />
      <rect
         style="fill:#ddf72e;fill-opacity:1;stroke:#ffffff;stroke-width:0.5;stroke-miterlimit:4;stroke-dasharray:none;stroke-opacity:1"
         id="rect7938"
         width="10"
         height="10"
         x="180"
         y="100" />
      <rect
         style="fill:#ddf72e;fill-opacity:1;stroke:#ffffff;stroke-width:0.5;stroke-miterlimit:4;stroke-dasharray:none;stroke-opacity:1"
         id="rect7940"
         width="10"
         height="10"
         x="190"
         y="100" />
    </g>
  </g>
</svg>
