<?xml version="1.0" encoding="UTF-8" standalone="no"?>
<svg
   xmlns:dc="http://purl.org/dc/elements/1.1/"
   xmlns:cc="http://creativecommons.org/ns#"
   xmlns:rdf="http://www.w3.org/1999/02/22-rdf-syntax-ns#"
   xmlns:svg="http://www.w3.org/2000/svg"
   xmlns="http://www.w3.org/2000/svg"
   xmlns:sodipodi="http://sodipodi.sourceforge.net/DTD/sodipodi-0.dtd"
   xmlns:inkscape="http://www.inkscape.org/namespaces/inkscape"
   width="110.5mm"
   height="110.5mm"
   viewBox="0 0 110.5 110.5"
   version="1.1"
   id="svg8"
   inkscape:version="1.0.2 (e86c870879, 2021-01-15)"
   sodipodi:docname="penta.set (другая копия).svg">
  <defs
     id="defs2" />
  <sodipodi:namedview
     id="base"
     pagecolor="#ffffff"
     bordercolor="#666666"
     borderopacity="1.0"
     inkscape:pageopacity="0.0"
     inkscape:pageshadow="2"
     inkscape:zoom="0.98994949"
     inkscape:cx="433.57266"
     inkscape:cy="199.37026"
     inkscape:document-units="mm"
     inkscape:current-layer="layer1"
     inkscape:document-rotation="0"
     showgrid="true"
     inkscape:window-width="1920"
     inkscape:window-height="999"
     inkscape:window-x="0"
     inkscape:window-y="26"
     inkscape:window-maximized="1"
     fit-margin-top="0"
     fit-margin-left="0"
     fit-margin-right="0"
     fit-margin-bottom="0">
    <inkscape:grid
       type="xygrid"
       id="grid833"
       units="mm"
       spacingx="10"
       spacingy="10"
       dotted="true"
       originx="-9.7500004"
       originy="-59.750002" />
  </sodipodi:namedview>
  <metadata
     id="metadata5">
    <rdf:RDF>
      <cc:Work
         rdf:about="">
        <dc:format>image/svg+xml</dc:format>
        <dc:type
           rdf:resource="http://purl.org/dc/dcmitype/StillImage" />
        <dc:title></dc:title>
      </cc:Work>
    </rdf:RDF>
  </metadata>
  <g
     inkscape:label="Layer 1"
     inkscape:groupmode="layer"
     id="layer1"
     transform="translate(-9.75,-59.75)">
    <g
       id="g1007">
      <g
         id="g2483"
         transform="rotate(-45,60.857868,102.07106)">
        <rect
           style="fill:#d92300;fill-opacity:1;stroke:#ffffff;stroke-width:0.5;stroke-miterlimit:4;stroke-dasharray:none;stroke-opacity:1"
           id="rect838"
           width="10"
           height="10"
           x="-17.071068"
           y="114.35029"
           transform="rotate(-45)" />
        <rect
           style="fill:#d92300;fill-opacity:1;stroke:#ffffff;stroke-width:0.5;stroke-miterlimit:4;stroke-dasharray:none;stroke-opacity:1"
           id="rect838-3"
           width="10"
           height="10"
           x="-17.071068"
           y="124.35029"
           transform="rotate(-45)" />
        <rect
           style="fill:#d92300;fill-opacity:1;stroke:#ffffff;stroke-width:0.5;stroke-miterlimit:4;stroke-dasharray:none;stroke-opacity:1"
           id="rect838-6"
           width="10"
           height="10"
           x="-17.071068"
           y="134.35028"
           transform="rotate(-45)" />
        <rect
           style="fill:#d92300;fill-opacity:1;stroke:#ffffff;stroke-width:0.5;stroke-miterlimit:4;stroke-dasharray:none;stroke-opacity:1"
           id="rect838-7"
           width="10"
           height="10"
           x="-7.0710673"
           y="124.35029"
           transform="rotate(-45)" />
        <rect
           style="fill:#d92300;fill-opacity:1;stroke:#ffffff;stroke-width:0.5;stroke-miterlimit:4;stroke-dasharray:none;stroke-opacity:1"
           id="rect838-5"
           width="10"
           height="10"
           x="-27.071068"
           y="124.35029"
           transform="rotate(-45)" />
      </g>
      <g
         id="g2504"
         transform="matrix(-0.70710678,0.70710678,0.70710678,0.70710678,51.213204,-137.48737)">
        <rect
           style="fill:#a64377;fill-opacity:1;stroke:#ffffff;stroke-width:0.5;stroke-miterlimit:4;stroke-dasharray:none;stroke-opacity:1"
           id="rect838-35"
           width="10"
           height="10"
           x="-31.213219"
           y="-257.48737"
           transform="rotate(135)" />
        <rect
           style="fill:#a64377;fill-opacity:1;stroke:#ffffff;stroke-width:0.5;stroke-miterlimit:4;stroke-dasharray:none;stroke-opacity:1"
           id="rect838-35-9"
           width="10"
           height="10"
           x="-21.213203"
           y="-257.48737"
           transform="rotate(135)" />
        <rect
           style="fill:#a64377;fill-opacity:1;stroke:#ffffff;stroke-width:0.5;stroke-miterlimit:4;stroke-dasharray:none;stroke-opacity:1"
           id="rect838-35-1"
           width="10"
           height="10"
           x="-11.213204"
           y="-257.48737"
           transform="rotate(135)" />
        <rect
           style="fill:#a64377;fill-opacity:1;stroke:#ffffff;stroke-width:0.5;stroke-miterlimit:4;stroke-dasharray:none;stroke-opacity:1"
           id="rect838-35-2"
           width="10"
           height="10"
           x="-11.213204"
           y="-247.48737"
           transform="rotate(135)" />
        <rect
           style="fill:#a64377;fill-opacity:1;stroke:#ffffff;stroke-width:0.5;stroke-miterlimit:4;stroke-dasharray:none;stroke-opacity:1"
           id="rect838-35-7"
           width="10"
           height="10"
           x="-1.2132041"
           y="-247.48737"
           transform="rotate(135)" />
      </g>
      <g
         id="g2445"
         transform="rotate(-90,60,80)">
        <rect
           style="fill:#1c949d;fill-opacity:1;stroke:#ffffff;stroke-width:0.5;stroke-miterlimit:4;stroke-dasharray:none;stroke-opacity:1"
           id="rect838-35-0"
           width="10"
           height="10"
           x="30"
           y="50" />
        <rect
           style="fill:#1c949d;fill-opacity:1;stroke:#ffffff;stroke-width:0.5;stroke-miterlimit:4;stroke-dasharray:none;stroke-opacity:1"
           id="rect838-35-0-6"
           width="10"
           height="10"
           x="30"
           y="40" />
        <rect
           style="fill:#1c949d;fill-opacity:1;stroke:#ffffff;stroke-width:0.5;stroke-miterlimit:4;stroke-dasharray:none;stroke-opacity:1"
           id="rect838-35-0-0"
           width="10"
           height="10"
           x="30"
           y="30" />
        <rect
           style="fill:#1c949d;fill-opacity:1;stroke:#ffffff;stroke-width:0.5;stroke-miterlimit:4;stroke-dasharray:none;stroke-opacity:1"
           id="rect838-35-0-62"
           width="10"
           height="10"
           x="40"
           y="30" />
        <rect
           style="fill:#1c949d;fill-opacity:1;stroke:#ffffff;stroke-width:0.5;stroke-miterlimit:4;stroke-dasharray:none;stroke-opacity:1"
           id="rect838-35-0-61"
           width="10"
           height="10"
           x="20"
           y="30" />
      </g>
      <g
         id="g2452"
         transform="rotate(180,80,60)">
        <rect
           style="fill:#eeac2a;fill-opacity:1;stroke:#ffffff;stroke-width:0.5;stroke-miterlimit:4;stroke-dasharray:none;stroke-opacity:1"
           id="rect838-35-0-8"
           width="10"
           height="10"
           x="70"
           y="40" />
        <rect
           style="fill:#eeac2a;fill-opacity:1;stroke:#ffffff;stroke-width:0.5;stroke-miterlimit:4;stroke-dasharray:none;stroke-opacity:1"
           id="rect838-35-0-8-7"
           width="10"
           height="10"
           x="70"
           y="50" />
        <rect
           style="fill:#eeac2a;fill-opacity:1;stroke:#ffffff;stroke-width:0.5;stroke-miterlimit:4;stroke-dasharray:none;stroke-opacity:1"
           id="rect838-35-0-8-9"
           width="10"
           height="10"
           x="80"
           y="50" />
        <rect
           style="fill:#eeac2a;fill-opacity:1;stroke:#ffffff;stroke-width:0.5;stroke-miterlimit:4;stroke-dasharray:none;stroke-opacity:1"
           id="rect838-35-0-8-2"
           width="10"
           height="10"
           x="90"
           y="50" />
        <rect
           style="fill:#eeac2a;fill-opacity:1;stroke:#ffffff;stroke-width:0.5;stroke-miterlimit:4;stroke-dasharray:none;stroke-opacity:1"
           id="rect838-35-0-8-0"
           width="10"
           height="10"
           x="90"
           y="40" />
      </g>
      <g
         id="g2469"
         transform="rotate(-45,237.78175,199.49747)">
        <rect
           style="fill:#24ca30;fill-opacity:1;stroke:#ffffff;stroke-width:0.5;stroke-miterlimit:4;stroke-dasharray:none;stroke-opacity:1"
           id="rect838-35-0-8-23"
           width="10"
           height="10"
           x="56.568542"
           y="111.42136"
           transform="rotate(-45)" />
        <rect
           style="fill:#24ca30;fill-opacity:1;stroke:#ffffff;stroke-width:0.5;stroke-miterlimit:4;stroke-dasharray:none;stroke-opacity:1"
           id="rect838-35-0-8-23-7"
           width="10"
           height="10"
           x="56.568542"
           y="121.42136"
           transform="rotate(-45)" />
        <rect
           style="fill:#24ca30;fill-opacity:1;stroke:#ffffff;stroke-width:0.5;stroke-miterlimit:4;stroke-dasharray:none;stroke-opacity:1"
           id="rect838-35-0-8-23-5"
           width="10"
           height="10"
           x="56.568542"
           y="131.42136"
           transform="rotate(-45)" />
        <rect
           style="fill:#24ca30;fill-opacity:1;stroke:#ffffff;stroke-width:0.5;stroke-miterlimit:4;stroke-dasharray:none;stroke-opacity:1"
           id="rect838-35-0-8-23-9"
           width="10"
           height="10"
           x="66.568542"
           y="131.42136"
           transform="rotate(-45)" />
        <rect
           style="fill:#24ca30;fill-opacity:1;stroke:#ffffff;stroke-width:0.5;stroke-miterlimit:4;stroke-dasharray:none;stroke-opacity:1"
           id="rect838-35-0-8-23-2"
           width="10"
           height="10"
           x="76.568542"
           y="131.42136"
           transform="rotate(-45)" />
      </g>
      <g
         id="g2476"
         transform="rotate(-45,84.142136,61.715729)">
        <rect
           style="fill:#4224ca;fill-opacity:1;stroke:#ffffff;stroke-width:0.5;stroke-miterlimit:4;stroke-dasharray:none;stroke-opacity:1"
           id="rect838-35-0-8-23-28"
           width="10"
           height="10"
           x="-62.426407"
           y="78.994949"
           transform="rotate(-45)" />
        <rect
           style="fill:#4224ca;fill-opacity:1;stroke:#ffffff;stroke-width:0.5;stroke-miterlimit:4;stroke-dasharray:none;stroke-opacity:1"
           id="rect838-35-0-8-23-28-9"
           width="10"
           height="10"
           x="-62.426407"
           y="88.994949"
           transform="rotate(-45)" />
        <rect
           style="fill:#4224ca;fill-opacity:1;stroke:#ffffff;stroke-width:0.5;stroke-miterlimit:4;stroke-dasharray:none;stroke-opacity:1"
           id="rect838-35-0-8-23-28-7"
           width="10"
           height="10"
           x="-52.426407"
           y="88.994949"
           transform="rotate(-45)" />
        <rect
           style="fill:#4224ca;fill-opacity:1;stroke:#ffffff;stroke-width:0.5;stroke-miterlimit:4;stroke-dasharray:none;stroke-opacity:1"
           id="rect838-35-0-8-23-28-3"
           width="10"
           height="10"
           x="-52.426407"
           y="98.994949"
           transform="rotate(-45)" />
        <rect
           style="fill:#4224ca;fill-opacity:1;stroke:#ffffff;stroke-width:0.5;stroke-miterlimit:4;stroke-dasharray:none;stroke-opacity:1"
           id="rect838-35-0-8-23-28-6"
           width="10"
           height="10"
           x="-42.426407"
           y="98.994949"
           transform="rotate(-45)" />
      </g>
      <g
         id="g2490"
         transform="matrix(-0.70710678,-0.70710678,-0.70710678,0.70710678,215.56349,158.28427)">
        <rect
           style="fill:#167616;fill-opacity:1;stroke:#ffffff;stroke-width:0.5;stroke-miterlimit:4;stroke-dasharray:none;stroke-opacity:1"
           id="rect838-35-0-8-23-28-1"
           width="10"
           height="10"
           x="155.56349"
           y="-48.284271"
           transform="rotate(45)" />
        <rect
           style="fill:#167616;fill-opacity:1;stroke:#ffffff;stroke-width:0.5;stroke-miterlimit:4;stroke-dasharray:none;stroke-opacity:1"
           id="rect838-35-0-8-23-28-1-2"
           width="10"
           height="10"
           x="155.56349"
           y="-38.284271"
           transform="rotate(45)" />
        <rect
           style="fill:#167616;fill-opacity:1;stroke:#ffffff;stroke-width:0.5;stroke-miterlimit:4;stroke-dasharray:none;stroke-opacity:1"
           id="rect838-35-0-8-23-28-1-9"
           width="10"
           height="10"
           x="155.56349"
           y="-28.284271"
           transform="rotate(45)" />
        <rect
           style="fill:#167616;fill-opacity:1;stroke:#ffffff;stroke-width:0.5;stroke-miterlimit:4;stroke-dasharray:none;stroke-opacity:1"
           id="rect838-35-0-8-23-28-1-3"
           width="10"
           height="10"
           x="155.56349"
           y="-18.284271"
           transform="rotate(45)" />
        <rect
           style="fill:#167616;fill-opacity:1;stroke:#ffffff;stroke-width:0.5;stroke-miterlimit:4;stroke-dasharray:none;stroke-opacity:1"
           id="rect838-35-0-8-23-28-1-1"
           width="10"
           height="10"
           x="145.56349"
           y="-38.284271"
           transform="rotate(45)" />
      </g>
      <g
         id="g2532"
         transform="matrix(0,-1,-1,0,240,130)">
        <rect
           style="fill:#1898f7;fill-opacity:1;stroke:#ffffff;stroke-width:0.5;stroke-miterlimit:4;stroke-dasharray:none;stroke-opacity:1"
           id="rect838-35-0-8-23-28-1-94-0"
           width="10"
           height="10"
           x="20"
           y="150" />
        <rect
           style="fill:#1898f7;fill-opacity:1;stroke:#ffffff;stroke-width:0.5;stroke-miterlimit:4;stroke-dasharray:none;stroke-opacity:1"
           id="rect838-35-0-8-23-28-1-94-0-3"
           width="10"
           height="10"
           x="30"
           y="150" />
        <rect
           style="fill:#1898f7;fill-opacity:1;stroke:#ffffff;stroke-width:0.5;stroke-miterlimit:4;stroke-dasharray:none;stroke-opacity:1"
           id="rect838-35-0-8-23-28-1-94-0-6"
           width="10"
           height="10"
           x="20"
           y="160" />
        <rect
           style="fill:#1898f7;fill-opacity:1;stroke:#ffffff;stroke-width:0.5;stroke-miterlimit:4;stroke-dasharray:none;stroke-opacity:1"
           id="rect838-35-0-8-23-28-1-94-0-1"
           width="10"
           height="10"
           x="10"
           y="160" />
        <rect
           style="fill:#1898f7;fill-opacity:1;stroke:#ffffff;stroke-width:0.5;stroke-miterlimit:4;stroke-dasharray:none;stroke-opacity:1"
           id="rect838-35-0-8-23-28-1-94-0-0"
           width="10"
           height="10"
           x="20"
           y="170" />
      </g>
      <g
         id="g2525"
         transform="translate(130,-109.99998)">
        <g
           id="g908"
           transform="rotate(-90,14.999998,254.99998)">
          <rect
             style="fill:#f7c218;fill-opacity:1;stroke:#ffffff;stroke-width:0.5;stroke-miterlimit:4;stroke-dasharray:none;stroke-opacity:1"
             id="rect838-35-0-8-23-28-1-94-0-63"
             width="10"
             height="10"
             x="60"
             y="150" />
          <rect
             style="fill:#f7c218;fill-opacity:1;stroke:#ffffff;stroke-width:0.5;stroke-miterlimit:4;stroke-dasharray:none;stroke-opacity:1"
             id="rect838-35-0-8-23-28-1-94-0-63-2"
             width="10"
             height="10"
             x="60"
             y="160" />
          <rect
             style="fill:#f7c218;fill-opacity:1;stroke:#ffffff;stroke-width:0.5;stroke-miterlimit:4;stroke-dasharray:none;stroke-opacity:1"
             id="rect838-35-0-8-23-28-1-94-0-63-0"
             width="10"
             height="10"
             x="60"
             y="170" />
          <rect
             style="fill:#f7c218;fill-opacity:1;stroke:#ffffff;stroke-width:0.5;stroke-miterlimit:4;stroke-dasharray:none;stroke-opacity:1"
             id="rect838-35-0-8-23-28-1-94-0-63-6"
             width="10"
             height="10"
             x="60"
             y="139.99998" />
          <rect
             style="fill:#f7c218;fill-opacity:1;stroke:#ffffff;stroke-width:0.5;stroke-miterlimit:4;stroke-dasharray:none;stroke-opacity:1"
             id="rect838-35-0-8-23-28-1-94-0-63-1"
             width="10"
             height="10"
             x="60"
             y="129.99998" />
        </g>
      </g>
      <g
         id="g2518"
         transform="translate(-50,-20)">
        <rect
           style="fill:#d00ff7;fill-opacity:1;stroke:#ffffff;stroke-width:0.5;stroke-miterlimit:4;stroke-dasharray:none;stroke-opacity:1"
           id="rect838-35-0-8-23-28-1-94-0-63-5"
           width="10"
           height="10"
           x="90"
           y="170" />
        <rect
           style="fill:#d00ff7;fill-opacity:1;stroke:#ffffff;stroke-width:0.5;stroke-miterlimit:4;stroke-dasharray:none;stroke-opacity:1"
           id="rect838-35-0-8-23-28-1-94-0-63-5-5"
           width="10"
           height="10"
           x="90"
           y="160" />
        <rect
           style="fill:#d00ff7;fill-opacity:1;stroke:#ffffff;stroke-width:0.5;stroke-miterlimit:4;stroke-dasharray:none;stroke-opacity:1"
           id="rect838-35-0-8-23-28-1-94-0-63-5-4"
           width="10"
           height="10"
           x="90"
           y="150" />
        <rect
           style="fill:#d00ff7;fill-opacity:1;stroke:#ffffff;stroke-width:0.5;stroke-miterlimit:4;stroke-dasharray:none;stroke-opacity:1"
           id="rect838-35-0-8-23-28-1-94-0-63-5-7"
           width="10"
           height="10"
           x="90"
           y="140" />
        <rect
           style="fill:#d00ff7;fill-opacity:1;stroke:#ffffff;stroke-width:0.5;stroke-miterlimit:4;stroke-dasharray:none;stroke-opacity:1"
           id="rect838-35-0-8-23-28-1-94-0-63-5-6"
           width="10"
           height="10"
           x="100"
           y="170" />
      </g>
      <g
         id="g930"
         transform="translate(-20,10)">
        <g
           id="g2497"
           transform="matrix(-1,0,0,1,300,20)">
          <rect
             style="fill:#ddf72e;fill-opacity:1;stroke:#ffffff;stroke-width:0.5;stroke-miterlimit:4;stroke-dasharray:none;stroke-opacity:1"
             id="rect838-35-0-8-23-28-1-94"
             width="10"
             height="10"
             x="170"
             y="80" />
          <rect
             style="fill:#ddf72e;fill-opacity:1;stroke:#ffffff;stroke-width:0.5;stroke-miterlimit:4;stroke-dasharray:none;stroke-opacity:1"
             id="rect838-35-0-8-23-28-1-94-7"
             width="10"
             height="10"
             x="180"
             y="80" />
          <rect
             style="fill:#ddf72e;fill-opacity:1;stroke:#ffffff;stroke-width:0.5;stroke-miterlimit:4;stroke-dasharray:none;stroke-opacity:1"
             id="rect838-35-0-8-23-28-1-94-8"
             width="10"
             height="10"
             x="180"
             y="90" />
          <rect
             style="fill:#ddf72e;fill-opacity:1;stroke:#ffffff;stroke-width:0.5;stroke-miterlimit:4;stroke-dasharray:none;stroke-opacity:1"
             id="rect838-35-0-8-23-28-1-94-4"
             width="10"
             height="10"
             x="180"
             y="100" />
          <rect
             style="fill:#ddf72e;fill-opacity:1;stroke:#ffffff;stroke-width:0.5;stroke-miterlimit:4;stroke-dasharray:none;stroke-opacity:1"
             id="rect838-35-0-8-23-28-1-94-5"
             width="10"
             height="10"
             x="190"
             y="100" />
        </g>
        <g
           id="g2511"
           transform="translate(20,20)">
          <g
             id="g915"
             transform="rotate(180,125,130)">
            <rect
               style="fill:#f572f7;fill-opacity:1;stroke:#ffffff;stroke-width:0.5;stroke-miterlimit:4;stroke-dasharray:none;stroke-opacity:1"
               id="rect838-35-0-8-23-28-1-94-0-63-5-56"
               width="10"
               height="10"
               x="130"
               y="160" />
            <rect
               style="fill:#f572f7;fill-opacity:1;stroke:#ffffff;stroke-width:0.5;stroke-miterlimit:4;stroke-dasharray:none;stroke-opacity:1"
               id="rect838-35-0-8-23-28-1-94-0-63-5-56-3"
               width="10"
               height="10"
               x="130"
               y="150" />
            <rect
               style="fill:#f572f7;fill-opacity:1;stroke:#ffffff;stroke-width:0.5;stroke-miterlimit:4;stroke-dasharray:none;stroke-opacity:1"
               id="rect838-35-0-8-23-28-1-94-0-63-5-56-7"
               width="10"
               height="10"
               x="140"
               y="150" />
            <rect
               style="fill:#f572f7;fill-opacity:1;stroke:#ffffff;stroke-width:0.5;stroke-miterlimit:4;stroke-dasharray:none;stroke-opacity:1"
               id="rect838-35-0-8-23-28-1-94-0-63-5-56-4"
               width="10"
               height="10"
               x="140"
               y="160" />
            <rect
               style="fill:#f572f7;fill-opacity:1;stroke:#ffffff;stroke-width:0.5;stroke-miterlimit:4;stroke-dasharray:none;stroke-opacity:1"
               id="rect838-35-0-8-23-28-1-94-0-63-5-56-5"
               width="10"
               height="10"
               x="130"
               y="170" />
          </g>
        </g>
      </g>
    </g>
  </g>
</svg>
