<?xml version="1.0" encoding="UTF-8" standalone="no"?>
<svg
   xmlns:dc="http://purl.org/dc/elements/1.1/"
   xmlns:cc="http://creativecommons.org/ns#"
   xmlns:rdf="http://www.w3.org/1999/02/22-rdf-syntax-ns#"
   xmlns:svg="http://www.w3.org/2000/svg"
   xmlns="http://www.w3.org/2000/svg"
   xmlns:sodipodi="http://sodipodi.sourceforge.net/DTD/sodipodi-0.dtd"
   xmlns:inkscape="http://www.inkscape.org/namespaces/inkscape"
   version="1.1"
   width="239.30753"
   height="254.65613"
   id="svg2"
   sodipodi:docname="escher.lizard.tile.svg"
   inkscape:version="1.0.2 (e86c870879, 2021-01-15)">
  <metadata
     id="metadata34">
    <rdf:RDF>
      <cc:Work
         rdf:about="">
        <dc:format>image/svg+xml</dc:format>
        <dc:type
           rdf:resource="http://purl.org/dc/dcmitype/StillImage" />
        <dc:title />
      </cc:Work>
    </rdf:RDF>
  </metadata>
  <defs
     id="defs32" />
  <sodipodi:namedview
     pagecolor="#ffffff"
     bordercolor="#666666"
     borderopacity="1"
     objecttolerance="10"
     gridtolerance="10"
     guidetolerance="10"
     inkscape:pageopacity="0"
     inkscape:pageshadow="2"
     inkscape:window-width="1600"
     inkscape:window-height="1163"
     id="namedview30"
     showgrid="false"
     fit-margin-top="5"
     fit-margin-left="5"
     fit-margin-right="5"
     fit-margin-bottom="5"
     inkscape:zoom="2.8988874"
     inkscape:cx="153.94005"
     inkscape:cy="146.59533"
     inkscape:window-x="0"
     inkscape:window-y="0"
     inkscape:window-maximized="1"
     inkscape:current-layer="svg2"
     inkscape:document-rotation="0" />
  <g
     transform="translate(113.8662,60.59435)"
     id="g9-6"
     style="fill:#217178;fill-opacity:1">
    <path
       d="m 69.25829,3.86233 2.08083,9.04526 -4.18942,11.54172 -5.90327,3.58826 -10.30588,-3.59759 -5.52726,1.93318 -9.87332,-6.14073 11.59135,-7.24822 -0.4137,-11.7395 -8.05102,4.30253 -1.06059,5.60095 -8.15711,7.03031 0.13359,5.91826 7.40109,8.80464 13.58327,4.16441 -17.60495,2.6509 -12.76195,-9.55277 -9.8661,5.29093 -2.02695,-3.51078 -5.20952,-0.04817 -1.45404,10.85021 1.59534,2.37669 15.14454,-6.28562 12.22398,8.71735 0.12237,6.02018 -12.43804,12.08962 4.1231,16.31087 4.28994,2.36188 12.50728,-5.70148 2.17001,-16.57343 4.29075,-0.29036 9.86889,7.60905 -3.53301,5.99075 h -3.5764 l -0.30755,9.80593 7.67303,0.19035 3.21138,-6.33309 7.61778,-7.30506 -12.64408,-13.80617 9.42653,-10.64463 4.94781,9.55204 9.62004,7.96145 11.93376,-4.43555 9.24304,0.4224 -3.60866,-10.80209 -18.36843,4.06691 -2.74851,-11.19037 -4.18125,-6.41126 4.64297,-7.6001 1.86227,-15.58015 z"
       id="path1.203546e+026.783372e+01-2"
       style="opacity:1;fill:#217178;fill-opacity:1;stroke:#000000;stroke-width:0.005"
       inkscape:connector-curvature="0" />
  </g>
  <g
     transform="translate(197.0071,143.54407)"
     id="g15-2"
     style="fill:#009565;fill-opacity:1">
    <path
       d="m -37.97402,58.04827 -8.87384,-2.72057 -7.90071,-9.39901 -0.15589,-6.90651 8.26854,-7.12636 1.08945,-5.75333 10.25469,-5.48019 0.48147,13.66252 10.37355,5.51147 0.29941,-9.12365 -4.32027,-3.71897 -2.00987,-10.57942 -5.19216,-2.84345 -11.32559,2.00722 -10.39812,9.68125 6.50673,-16.57178 14.65392,-6.27579 0.35096,-11.18976 h 4.05391 l 2.64647,-4.48749 -8.66954,-6.68434 -2.85594,0.19326 -2.12876,16.25837 -13.66144,6.2276 -5.27481,-2.90411 -4.2509,-16.81648 -16.18718,-4.58472 -4.19041,2.53425 -1.31603,13.68237 13.26802,10.166 -1.89392,3.86108 -11.52408,4.74217 -3.42163,-6.05504 1.7882,-3.09725 -8.33841,-5.16932 -4.00136,6.54986 3.87892,5.94769 2.51748,10.24972 18.27853,-4.047 4.50526,13.48592 -10.74621,-0.49109 -11.70485,4.35048 -2.12557,12.55271 -4.98733,7.79351 11.15921,2.27585 5.66217,-17.94098 11.06539,3.21491 7.64295,-0.41545 4.26039,7.82098 12.56167,9.40286 z"
       id="path2.034955e+021.507834e+02-7"
       style="opacity:1;fill:#009565;fill-opacity:1;stroke:#000000;stroke-width:0.005"
       inkscape:connector-curvature="0" />
  </g>
  <g
     transform="translate(83.6002,174.07137)"
     id="g21-3"
     style="fill:#9d0d0d;fill-opacity:1">
    <path
       d="m -31.28427,-61.9106 6.79301,-6.32469 12.09013,-2.14271 6.05917,3.31825 2.03733,10.72395 4.43781,3.82016 -0.38136,11.62091 -12.07283,-6.41429 -9.95985,6.22802 7.75161,4.82112 5.38086,-1.88197 10.16698,3.5491 5.05858,-3.07482 3.92449,-10.81185 -3.18515,-13.84566 11.09822,13.92088 -1.89197,15.82857 9.51514,5.89881 -2.02696,3.51079 2.56305,4.53566 10.12358,-4.16587 1.2606,-2.56995 -13.01578,-9.97274 1.43746,-14.94496 5.15244,-3.11606 16.68894,4.72684 12.06408,-11.72614 -0.09952,-4.89613 -11.19127,-7.98089 -15.43802,6.40743 -2.39683,-3.57072 1.65519,-12.35123 6.95464,0.0643 1.7882,3.09725 8.64596,-4.63661 -3.67166,-6.74022 -7.09031,0.38541 -10.13526,-2.94467 -5.63446,17.85319 -13.93178,-2.8413 5.7984,-9.06095 2.0848,-12.31193 -9.80818,-8.11716 -4.25571,-8.21591 -7.55056,8.52624 12.70626,13.87407 -8.31688,7.97546 -3.46169,6.82671 -8.90336,-0.22088 -14.42395,6.1773 z"
       id="path9.008856e+011.813107e+02-6"
       style="opacity:1;fill:#9d0d0d;fill-opacity:1;stroke:#000000;stroke-width:0.005"
       inkscape:connector-curvature="0" />
  </g>
</svg>
