<?xml version="1.0" encoding="UTF-8" standalone="no"?>
<svg
   xmlns:dc="http://purl.org/dc/elements/1.1/"
   xmlns:cc="http://creativecommons.org/ns#"
   xmlns:rdf="http://www.w3.org/1999/02/22-rdf-syntax-ns#"
   xmlns:svg="http://www.w3.org/2000/svg"
   xmlns="http://www.w3.org/2000/svg"
   xmlns:sodipodi="http://sodipodi.sourceforge.net/DTD/sodipodi-0.dtd"
   xmlns:inkscape="http://www.inkscape.org/namespaces/inkscape"
   sodipodi:docname="tiling.uni.2.svg"
   inkscape:version="1.0 (4035a4fb49, 2020-05-01)"
   id="svg8"
   version="1.1"
   viewBox="0 0 107.04453 107.23642"
   height="107.23642mm"
   width="107.04453mm">
  <defs
     id="defs2">
    <marker
       inkscape:isstock="true"
       style="overflow:visible"
       id="Arrow2Mend"
       refX="0"
       refY="0"
       orient="auto"
       inkscape:stockid="Arrow2Mend">
      <path
         transform="scale(-0.6)"
         d="M 8.7185878,4.0337352 -2.2072895,0.01601326 8.7185884,-4.0017078 c -1.7454984,2.3720609 -1.7354408,5.6174519 -6e-7,8.035443 z"
         style="fill:#000604;fill-opacity:1;fill-rule:evenodd;stroke:#000000;stroke-width:0.625;stroke-linejoin:round;stroke-opacity:1"
         id="path7011" />
    </marker>
    <marker
       inkscape:isstock="true"
       style="overflow:visible"
       id="Arrow2Lend"
       refX="0"
       refY="0"
       orient="auto"
       inkscape:stockid="Arrow2Lend">
      <path
         transform="matrix(-1.1,0,0,-1.1,-1.1,0)"
         d="M 8.7185878,4.0337352 -2.2072895,0.01601326 8.7185884,-4.0017078 c -1.7454984,2.3720609 -1.7354408,5.6174519 -6e-7,8.035443 z"
         style="fill:#000000;fill-opacity:1;fill-rule:evenodd;stroke:#000000;stroke-width:0.625;stroke-linejoin:round;stroke-opacity:1"
         id="path7005" />
    </marker>
    <marker
       inkscape:stockid="Arrow2Mend"
       orient="auto"
       refY="0"
       refX="0"
       id="Arrow2Mend-4"
       style="overflow:visible"
       inkscape:isstock="true">
      <path
         id="path7011-2"
         style="fill:#000604;fill-opacity:1;fill-rule:evenodd;stroke:#000000;stroke-width:0.625;stroke-linejoin:round;stroke-opacity:1"
         d="M 8.7185878,4.0337352 -2.2072895,0.01601326 8.7185884,-4.0017078 c -1.7454984,2.3720609 -1.7354408,5.6174519 -6e-7,8.035443 z"
         transform="scale(-0.6)" />
    </marker>
    <marker
       inkscape:stockid="Arrow2Mend"
       orient="auto"
       refY="0"
       refX="0"
       id="Arrow2Mend-40"
       style="overflow:visible"
       inkscape:isstock="true">
      <path
         id="path7011-3"
         style="fill:#000604;fill-opacity:1;fill-rule:evenodd;stroke:#000000;stroke-width:0.625;stroke-linejoin:round;stroke-opacity:1"
         d="M 8.7185878,4.0337352 -2.2072895,0.01601326 8.7185884,-4.0017078 c -1.7454984,2.3720609 -1.7354408,5.6174519 -6e-7,8.035443 z"
         transform="scale(-0.6)" />
    </marker>
    <marker
       inkscape:isstock="true"
       style="overflow:visible"
       id="Arrow2Mend-4-2"
       refX="0"
       refY="0"
       orient="auto"
       inkscape:stockid="Arrow2Mend">
      <path
         transform="scale(-0.6)"
         d="M 8.7185878,4.0337352 -2.2072895,0.01601326 8.7185884,-4.0017078 c -1.7454984,2.3720609 -1.7354408,5.6174519 -6e-7,8.035443 z"
         style="fill:#000604;fill-opacity:1;fill-rule:evenodd;stroke:#000000;stroke-width:0.625;stroke-linejoin:round;stroke-opacity:1"
         id="path7011-2-8" />
    </marker>
  </defs>
  <sodipodi:namedview
     fit-margin-bottom="0"
     fit-margin-right="0"
     fit-margin-left="0"
     fit-margin-top="0"
     inkscape:window-maximized="1"
     inkscape:window-y="0"
     inkscape:window-x="0"
     inkscape:window-height="1403"
     inkscape:window-width="2560"
     showgrid="false"
     inkscape:document-rotation="0"
     inkscape:current-layer="layer1"
     inkscape:document-units="mm"
     inkscape:cy="216.51298"
     inkscape:cx="80.083311"
     inkscape:zoom="0.98994949"
     inkscape:pageshadow="2"
     inkscape:pageopacity="0.0"
     borderopacity="1.0"
     bordercolor="#666666"
     pagecolor="#ffffff"
     id="base" />
  <metadata
     id="metadata5">
    <rdf:RDF>
      <cc:Work
         rdf:about="">
        <dc:format>image/svg+xml</dc:format>
        <dc:type
           rdf:resource="http://purl.org/dc/dcmitype/StillImage" />
        <dc:title></dc:title>
      </cc:Work>
    </rdf:RDF>
  </metadata>
  <g
     transform="translate(118.58507,-68.917389)"
     id="layer1"
     inkscape:groupmode="layer"
     inkscape:label="Слой 1">
    <path
       id="path9519"
       d="M -17.516253,166.1343 H -28.70363 l -5.593821,-9.68851 5.593821,-9.68878 h 11.187377 l 5.593821,9.68878 z"
       style="fill:#a3ffa3;fill-opacity:1;stroke:#000000;stroke-width:0.661458;stroke-opacity:1" />
    <path
       id="path9537"
       d="m -28.70363,166.1343 -5.593821,9.68878 h -11.187377 l -5.593821,-9.68878 5.593821,-9.68851 h 11.187377 z"
       style="fill:#a3ffa3;fill-opacity:1;stroke:#000000;stroke-width:0.661458;stroke-opacity:1" />
    <path
       id="path9553"
       d="m -34.297451,156.44579 h -11.187377 l -5.593821,-9.68878 5.593821,-9.68851 h 11.187377 l 5.593821,9.68851 z"
       style="fill:#a3ffa3;fill-opacity:1;stroke:#000000;stroke-width:0.661458;stroke-opacity:1" />
    <path
       id="path9555"
       d="M -17.516253,146.75701 H -28.70363 l -5.593821,-9.68851 5.593821,-9.68851 h 11.187377 l 5.593821,9.68851 z"
       style="fill:#a3ffa3;fill-opacity:1;stroke:#000000;stroke-width:0.661458;stroke-opacity:1" />
    <path
       id="path9579"
       d="m -45.484828,156.44579 -5.593821,9.68851 h -11.187376 l -5.593821,-9.68851 5.593821,-9.68878 h 11.187376 z"
       style="fill:#a3ffa3;fill-opacity:1;stroke:#000000;stroke-width:0.661458;stroke-opacity:1" />
    <path
       id="path9599"
       d="m -45.484828,117.69121 h 11.187377 l 5.593821,9.68878 -5.593821,9.68851 h -11.187377 l -5.593821,-9.68851 z"
       style="fill:#a3ffa3;fill-opacity:1;stroke:#000000;stroke-width:0.661458;stroke-opacity:1" />
    <path
       id="path9601"
       d="m -62.266025,127.37999 h 11.187376 l 5.593821,9.68851 -5.593821,9.68851 h -11.187376 l -5.593821,-9.68851 z"
       style="fill:#a3ffa3;fill-opacity:1;stroke:#000000;stroke-width:0.661458;stroke-opacity:1" />
    <path
       id="path9603"
       d="m -28.70363,108.0027 h 11.187377 l 5.593821,9.68851 -5.593821,9.68878 H -28.70363 l -5.593821,-9.68878 z"
       style="fill:#a3ffa3;fill-opacity:1;stroke:#000000;stroke-width:0.661458;stroke-opacity:1" />
    <path
       id="path9631"
       d="m -79.047223,156.44579 h 11.187377 l 5.593821,9.68851 -5.593821,9.68878 h -11.187377 l -5.593821,-9.68878 z"
       style="fill:#a3ffa3;fill-opacity:1;stroke:#000000;stroke-width:0.661458;stroke-opacity:1" />
    <path
       id="path9633"
       d="m -79.047223,156.44579 -5.593821,-9.68878 5.593821,-9.68851 h 11.187377 l 5.593821,9.68851 -5.593821,9.68878 z"
       style="fill:#a3ffa3;fill-opacity:1;stroke:#000000;stroke-width:0.661458;stroke-opacity:1" />
    <path
       id="path9657"
       d="m -62.266025,127.37999 -5.593821,-9.68878 5.593821,-9.68851 h 11.187376 l 5.593821,9.68851 -5.593821,9.68878 z"
       style="fill:#a3ffa3;fill-opacity:1;stroke:#000000;stroke-width:0.661458;stroke-opacity:1" />
    <path
       id="path9659"
       d="m -45.484828,117.69121 -5.593821,-9.68851 5.593821,-9.68878 h 11.187377 l 5.593821,9.68878 -5.593821,9.68851 z"
       style="fill:#a3ffa3;fill-opacity:1;stroke:#000000;stroke-width:0.661458;stroke-opacity:1" />
    <path
       id="path9661"
       d="m -62.266025,127.37999 -5.593821,9.68851 h -11.187377 l -5.593821,-9.68851 5.593821,-9.68878 h 11.187377 z"
       style="fill:#a3ffa3;fill-opacity:1;stroke:#000000;stroke-width:0.661458;stroke-opacity:1" />
    <path
       id="path9663"
       d="m -28.70363,108.0027 -5.593821,-9.68878 5.593821,-9.688512 h 11.187377 l 5.593821,9.688512 -5.593821,9.68878 z"
       style="fill:#a3ffa3;fill-opacity:1;stroke:#000000;stroke-width:0.661458;stroke-opacity:1" />
    <path
       id="path9697"
       d="m -79.047223,156.44579 -5.593821,9.68851 h -11.187377 l -5.593819,-9.68851 5.593819,-9.68878 h 11.187377 z"
       style="fill:#a3ffa3;fill-opacity:1;stroke:#000000;stroke-width:0.661458;stroke-opacity:1" />
    <path
       id="path9699"
       d="m -79.047223,137.0685 -5.593821,9.68851 h -11.187377 l -5.593819,-9.68851 5.593819,-9.68851 h 11.187377 z"
       style="fill:#a3ffa3;fill-opacity:1;stroke:#000000;stroke-width:0.661458;stroke-opacity:1" />
    <path
       id="path9727"
       d="m -79.047223,98.31392 h 11.187377 l 5.593821,9.68878 -5.593821,9.68851 h -11.187377 l -5.593821,-9.68851 z"
       style="fill:#a3ffa3;fill-opacity:1;stroke:#000000;stroke-width:0.661458;stroke-opacity:1" />
    <path
       id="path9729"
       d="m -62.266025,88.625408 h 11.187376 l 5.593821,9.688512 -5.593821,9.68878 h -11.187376 l -5.593821,-9.68878 z"
       style="fill:#a3ffa3;fill-opacity:1;stroke:#000000;stroke-width:0.661458;stroke-opacity:1" />
    <path
       id="path9731"
       d="m -45.484828,78.936895 h 11.187377 l 5.593821,9.688513 -5.593821,9.688512 h -11.187377 l -5.593821,-9.688512 z"
       style="fill:#a3ffa3;fill-opacity:1;stroke:#000000;stroke-width:0.661458;stroke-opacity:1" />
    <path
       id="path9733"
       d="m -95.828421,108.0027 h 11.187377 l 5.593821,9.68851 -5.593821,9.68878 h -11.187377 l -5.593819,-9.68878 z"
       style="fill:#639b63;fill-opacity:1;stroke:#000000;stroke-width:0.661458;stroke-opacity:1" />
    <path
       id="path9735"
       d="m -34.297451,78.936895 5.593821,-9.688777 h 11.187377 l 5.593821,9.688777 -5.593821,9.688513 H -28.70363 Z"
       style="fill:#a3ffa3;fill-opacity:1;stroke:#000000;stroke-width:0.661458;stroke-opacity:1" />
    <path
       id="path9757"
       d="m -101.42224,78.936895 5.593819,9.688513 -5.593819,9.688512 h -11.18738 l -5.59356,-9.688512 5.59356,-9.688513 z"
       style="fill:#a3ffa3;fill-opacity:1;stroke:#000000;stroke-width:0.661458;stroke-opacity:1" />
    <path
       id="path9765"
       d="m -112.60962,156.44579 h 11.18738 l 5.593819,9.68851 -5.593819,9.68878 h -11.18738 l -5.59356,-9.68878 z"
       style="fill:#a3ffa3;fill-opacity:1;stroke:#000000;stroke-width:0.661458;stroke-opacity:1" />
    <path
       id="path9769"
       d="m -112.60962,137.0685 h 11.18738 l 5.593819,9.68851 -5.593819,9.68878 h -11.18738 l -5.59356,-9.68878 z"
       style="fill:#a3ffa3;fill-opacity:1;stroke:#000000;stroke-width:0.661458;stroke-opacity:1" />
    <path
       id="path9771"
       d="m -112.60962,117.69121 h 11.18738 l 5.593819,9.68878 -5.593819,9.68851 h -11.18738 l -5.59356,-9.68851 z"
       style="fill:#a3ffa3;fill-opacity:1;stroke:#000000;stroke-width:0.661458;stroke-opacity:1" />
    <path
       id="path9787"
       d="m -79.047223,78.936895 h 11.187377 l 5.593821,9.688513 -5.593821,9.688512 h -11.187377 l -5.593821,-9.688512 z"
       style="fill:#a3ffa3;fill-opacity:1;stroke:#000000;stroke-width:0.661458;stroke-opacity:1" />
    <path
       id="path9789"
       d="m -95.828421,88.625408 h 11.187377 l 5.593821,9.688512 -5.593821,9.68878 h -11.187377 l -5.593819,-9.68878 z"
       style="fill:#a3ffa3;fill-opacity:1;stroke:#000000;stroke-width:0.661458;stroke-opacity:1" />
    <path
       id="path9791"
       d="m -67.859846,78.936895 5.593821,-9.688777 h 11.187376 l 5.593821,9.688777 -5.593821,9.688513 h -11.187376 z"
       style="fill:#a3ffa3;fill-opacity:1;stroke:#000000;stroke-width:0.661458;stroke-opacity:1" />
    <path
       id="path9793"
       d="m -112.60962,98.31392 h 11.18738 l 5.593819,9.68878 -5.593819,9.68851 h -11.18738 l -5.59356,-9.68851 z"
       style="fill:#a3ffa3;fill-opacity:1;stroke:#000000;stroke-width:0.661458;stroke-opacity:1" />
    <path
       id="path9799"
       d="m -101.42224,78.936895 5.593819,-9.688777 h 11.187377 l 5.593821,9.688777 -5.593821,9.688513 h -11.187377 z"
       style="fill:#a3ffa3;fill-opacity:1;stroke:#000000;stroke-width:0.661458;stroke-opacity:1" />
    <g
       transform="translate(125.8329,-6.5325303)"
       id="g9067-0"
       style="fill:#000604;fill-opacity:1;stroke:#000000;stroke-opacity:1">
      <path
         sodipodi:nodetypes="cc"
         id="path6982-3"
         d="m -216.93865,124.00797 17.01185,-8.85246"
         style="fill:#000604;fill-opacity:1;fill-rule:evenodd;stroke:#000000;stroke-width:0.765;stroke-linecap:butt;stroke-linejoin:miter;stroke-miterlimit:4;stroke-dasharray:none;stroke-opacity:1;marker-end:url(#Arrow2Mend-40)" />
      <path
         sodipodi:nodetypes="cc"
         style="fill:#000604;fill-opacity:1;fill-rule:evenodd;stroke:#000000;stroke-width:0.765;stroke-linecap:butt;stroke-linejoin:miter;stroke-miterlimit:4;stroke-dasharray:none;stroke-opacity:1;marker-end:url(#Arrow2Mend-4-2)"
         d="m -216.93865,124.00797 0.65349,-18.64058"
         id="path6982-7-7" />
    </g>
  </g>
</svg>
