<?xml version="1.0" encoding="UTF-8" standalone="no"?>
<svg
   xmlns:dc="http://purl.org/dc/elements/1.1/"
   xmlns:cc="http://creativecommons.org/ns#"
   xmlns:rdf="http://www.w3.org/1999/02/22-rdf-syntax-ns#"
   xmlns:svg="http://www.w3.org/2000/svg"
   xmlns="http://www.w3.org/2000/svg"
   xmlns:sodipodi="http://sodipodi.sourceforge.net/DTD/sodipodi-0.dtd"
   xmlns:inkscape="http://www.inkscape.org/namespaces/inkscape"
   width="100"
   height="100"
   version="1.1"
   id="svg32"
   sodipodi:docname="voronoi.def.svg"
   inkscape:version="1.0.2 (e86c870879, 2021-01-15)">
  <metadata
     id="metadata38">
    <rdf:RDF>
      <cc:Work
         rdf:about="">
        <dc:format>image/svg+xml</dc:format>
        <dc:type
           rdf:resource="http://purl.org/dc/dcmitype/StillImage" />
      </cc:Work>
    </rdf:RDF>
  </metadata>
  <defs
     id="defs36" />
  <sodipodi:namedview
     pagecolor="#ffffff"
     bordercolor="#666666"
     borderopacity="1"
     objecttolerance="10"
     gridtolerance="10"
     guidetolerance="10"
     inkscape:pageopacity="0"
     inkscape:pageshadow="2"
     inkscape:window-width="1600"
     inkscape:window-height="1163"
     id="namedview34"
     showgrid="false"
     inkscape:zoom="5.015"
     inkscape:cx="38.209167"
     inkscape:cy="32.368824"
     inkscape:window-x="0"
     inkscape:window-y="0"
     inkscape:window-maximized="1"
     inkscape:current-layer="svg32" />
  <title
     id="title2">Voronoi. Simple poor</title>
  <style
     type="text/css"
     id="style4"><![CDATA[

.line {
	stroke: black;
	stroke-linecap: butt;
}

.text {
	font-family: Liberation Serif, serif;
	font-size: 15px;
	font-style: italic;
}
.text_sub {
	font-size: 10px;
}

]]></style>
  <!-- AntiqueWhite LightCyan -->
  <g
     id="g908">
    <path
       id="rect6"
       style="fill:#add8e6"
       d="M 0,0 H 50 V 100 H 0 Z" />
    <path
       id="rect8"
       style="fill:#90ee90"
       d="m 50,0 h 50 V 100 H 50 Z" />
    <path
       id="line10"
       style="stroke:#000000;stroke-linecap:butt"
       d="M 25,70 H 75"
       class="line" />
    <path
       id="line12"
       style="stroke:#000000;stroke-linecap:butt"
       d="M 50,10 V 90"
       class="line" />
    <path
       fill="none"
       stroke="black"
       d="M 50,65 l 5,0 l 0,5"
       id="path14" />
    <path
       id="circle16"
       d="m 27,70 a 2,2 0 0 1 -2,2 2,2 0 0 1 -2,-2 2,2 0 0 1 2,-2 2,2 0 0 1 2,2 z" />
    <path
       id="circle18"
       d="m 77,70 a 2,2 0 0 1 -2,2 2,2 0 0 1 -2,-2 2,2 0 0 1 2,-2 2,2 0 0 1 2,2 z" />
    <g
       aria-label="p"
       id="text20"
       style="font-style:italic;font-size:15px;font-family:'Liberation Serif', serif"
       class="text">
      <path
         d="m 15.706543,69.985352 -0.08057,0.659179 -0.351563,2.028809 1.171875,0.175781 -0.05859,0.344238 h -3.266601 l 0.05859,-0.344238 0.88623,-0.175781 1.604004,-9.04541 -0.754395,-0.183106 0.05859,-0.32959 h 1.940918 l -0.13916,1.113282 q 1.281738,-1.296387 2.307129,-1.296387 0.88623,0 1.420898,0.651855 0.541992,0.651856 0.541992,1.794434 0,1.289062 -0.549316,2.402344 -0.549316,1.105957 -1.494141,1.73584 -0.944824,0.629882 -2.050781,0.629882 -0.336914,0 -0.703125,-0.05127 -0.358887,-0.04394 -0.541992,-0.109863 z m 0.175781,-0.769043 q 0.454102,0.351562 1.230469,0.351562 0.725098,0 1.311035,-0.534668 0.593262,-0.534668 0.952149,-1.494141 0.358886,-0.966796 0.358886,-1.970214 0,-0.812989 -0.32959,-1.26709 -0.322265,-0.454102 -0.871582,-0.454102 -0.388183,0 -0.915527,0.285645 -0.527344,0.285644 -0.9375,0.732422 z"
         style="font-style:italic;font-size:15px;font-family:'Liberation Serif', serif"
         id="path880" />
    </g>
    <g
       aria-label="q"
       id="text22"
       style="font-style:italic;font-size:15px;font-family:'Liberation Serif', serif"
       class="text">
      <path
         d="m 83.068848,69.216309 q 0.527343,0 1.032714,-0.146485 0.512696,-0.146484 0.856934,-0.373535 l 0.886231,-5.002441 q -0.747071,-0.197754 -1.494141,-0.197754 -0.725098,0 -1.318359,0.534668 -0.585938,0.527343 -0.922852,1.464843 -0.32959,0.930176 -0.32959,1.992188 0,0.849609 0.32959,1.289062 0.336914,0.439454 0.959473,0.439454 z m 1.845703,0 q -0.563965,0.424804 -1.186524,0.681152 -0.622558,0.249023 -1.16455,0.249023 -1.003418,0 -1.538086,-0.622558 -0.527344,-0.622559 -0.527344,-1.853028 0,-1.340332 0.527344,-2.43164 0.527343,-1.098633 1.479492,-1.699219 0.959472,-0.60791 2.167969,-0.60791 0.512695,0 1.259765,0.102539 0.754395,0.09521 1.21582,0.205078 l -1.706542,9.433594 0.88623,0.175781 -0.05859,0.344238 h -2.131347 l 0.505371,-2.790527 q 0.117187,-0.637207 0.270996,-1.186523 z"
         style="font-style:italic;font-size:15px;font-family:'Liberation Serif', serif"
         id="path877" />
    </g>
    <g
       aria-label="Hpq"
       id="text26"
       style="font-style:italic;font-size:15px;font-family:'Liberation Serif', serif"
       class="text">
      <path
         d="m 4.8388672,20 0.058594,-0.388184 1.2890625,-0.197754 1.5161133,-8.657226 -1.2158203,-0.19043 0.058594,-0.388183 h 3.9331058 l -0.05859,0.388183 -1.3110353,0.19043 -0.6738281,3.859863 h 4.6215824 l 0.673828,-3.859863 -1.215821,-0.19043 0.05859,-0.388183 h 3.933106 l -0.05859,0.388183 -1.303711,0.19043 -1.516113,8.657226 1.21582,0.197754 L 14.777832,20 h -3.925781 l 0.05859,-0.388184 1.30371,-0.197754 0.725098,-4.138183 H 8.3178711 L 7.5927734,19.414062 8.8085938,19.611816 8.75,20 Z"
         style="font-style:italic;font-size:15px;font-family:'Liberation Serif', serif"
         id="path870" />
      <path
         d="m 16.970215,22.990234 -0.05371,0.439453 -0.234375,1.35254 0.78125,0.117187 -0.03906,0.229492 h -2.177734 l 0.03906,-0.229492 0.59082,-0.117187 1.069336,-6.030274 -0.50293,-0.12207 0.03906,-0.219727 h 1.293945 l -0.09277,0.742188 q 0.854493,-0.864258 1.538086,-0.864258 0.590821,0 0.947266,0.43457 0.361328,0.434571 0.361328,1.196289 0,0.859375 -0.366211,1.601563 -0.366211,0.737304 -0.996094,1.157226 -0.629882,0.419922 -1.367187,0.419922 -0.224609,0 -0.46875,-0.03418 -0.239258,-0.0293 -0.361328,-0.07324 z m 0.117187,-0.512695 q 0.302735,0.234375 0.820313,0.234375 0.483398,0 0.874023,-0.356445 0.395508,-0.356446 0.634766,-0.996094 0.239258,-0.644531 0.239258,-1.313477 0,-0.541992 -0.219727,-0.844726 -0.214844,-0.302735 -0.581055,-0.302735 -0.258789,0 -0.610351,0.19043 -0.351563,0.19043 -0.625,0.488281 z"
         style="font-size:10px"
         id="path872" />
      <path
         d="m 22.878418,22.477539 q 0.351562,0 0.688477,-0.09766 0.341796,-0.09766 0.571289,-0.249024 l 0.59082,-3.334961 q -0.498047,-0.131836 -0.996094,-0.131836 -0.483398,0 -0.878906,0.356446 -0.390625,0.351562 -0.615234,0.976562 -0.219727,0.620117 -0.219727,1.328125 0,0.566407 0.219727,0.859375 0.224609,0.292969 0.639648,0.292969 z m 1.230469,0 q -0.375977,0.283203 -0.791016,0.454102 -0.415039,0.166015 -0.776367,0.166015 -0.668945,0 -1.025391,-0.415039 -0.351562,-0.415039 -0.351562,-1.235351 0,-0.893555 0.351562,-1.621094 0.351563,-0.732422 0.986328,-1.132813 0.639649,-0.405273 1.445313,-0.405273 0.341797,0 0.839844,0.06836 0.502929,0.06348 0.810547,0.136719 l -1.137696,6.289063 0.590821,0.117187 -0.03906,0.229492 h -1.420898 l 0.336914,-1.860351 q 0.07813,-0.424805 0.180664,-0.791016 z"
         style="font-size:10px"
         id="path874" />
    </g>
    <g
       aria-label="Hqp"
       id="text30"
       style="font-style:italic;font-size:15px;font-family:'Liberation Serif', serif"
       class="text">
      <path
         d="m 71.838867,20 0.05859,-0.388184 1.289062,-0.197754 1.516114,-8.657226 -1.215821,-0.19043 0.05859,-0.388183 h 3.933106 l -0.05859,0.388183 -1.311035,0.19043 -0.673828,3.859863 h 4.621582 l 0.673828,-3.859863 -1.215821,-0.19043 0.05859,-0.388183 h 3.933106 l -0.05859,0.388183 -1.303711,0.19043 -1.516113,8.657226 1.21582,0.197754 L 81.777832,20 h -3.925781 l 0.05859,-0.388184 1.30371,-0.197754 0.725098,-4.138183 h -4.621582 l -0.725098,4.138183 1.215821,0.197754 L 75.75,20 Z"
         style="font-style:italic;font-size:15px;font-family:'Liberation Serif', serif"
         id="path863" />
      <path
         d="m 84.878418,22.477539 q 0.351562,0 0.688477,-0.09766 0.341796,-0.09766 0.571289,-0.249024 l 0.59082,-3.334961 q -0.498047,-0.131836 -0.996094,-0.131836 -0.483398,0 -0.878906,0.356446 -0.390625,0.351562 -0.615234,0.976562 -0.219727,0.620117 -0.219727,1.328125 0,0.566407 0.219727,0.859375 0.224609,0.292969 0.639648,0.292969 z m 1.230469,0 q -0.375977,0.283203 -0.791016,0.454102 -0.415039,0.166015 -0.776367,0.166015 -0.668945,0 -1.025391,-0.415039 -0.351562,-0.415039 -0.351562,-1.235351 0,-0.893555 0.351562,-1.621094 0.351563,-0.732422 0.986328,-1.132813 0.639649,-0.405273 1.445313,-0.405273 0.341797,0 0.839844,0.06836 0.502929,0.06348 0.810547,0.136719 l -1.137696,6.289063 0.590821,0.117187 -0.03906,0.229492 h -1.420898 l 0.336914,-1.860351 q 0.07813,-0.424805 0.180664,-0.791016 z"
         style="font-size:10px"
         id="path865" />
      <path
         d="m 88.970215,22.990234 -0.05371,0.439453 -0.234375,1.35254 0.78125,0.117187 -0.03906,0.229492 h -2.177734 l 0.03906,-0.229492 0.59082,-0.117187 1.069336,-6.030274 -0.50293,-0.12207 0.03906,-0.219727 h 1.293945 l -0.09277,0.742188 q 0.854493,-0.864258 1.538086,-0.864258 0.590821,0 0.947266,0.43457 0.361328,0.434571 0.361328,1.196289 0,0.859375 -0.366211,1.601563 -0.366211,0.737304 -0.996094,1.157226 -0.629882,0.419922 -1.367187,0.419922 -0.224609,0 -0.46875,-0.03418 -0.239258,-0.0293 -0.361328,-0.07324 z m 0.117187,-0.512695 q 0.302735,0.234375 0.820313,0.234375 0.483398,0 0.874023,-0.356445 0.395508,-0.356446 0.634766,-0.996094 0.239258,-0.644531 0.239258,-1.313477 0,-0.541992 -0.219727,-0.844726 -0.214844,-0.302735 -0.581055,-0.302735 -0.258789,0 -0.610351,0.19043 -0.351563,0.19043 -0.625,0.488281 z"
         style="font-size:10px"
         id="path867" />
    </g>
  </g>
</svg>
